// This file is generated automatically. All manually added changes will be removed when running the Converter.
// Map 006-3: Candor's Underground, B2F warps
006-3,49,49,0	warp	#006-3_49_49	0,0,006-0,46,27
