// This file is generated automatically. All manually added changes will be removed when running the Converter.
// Map 006-0: Candor's Underground, B1F warps
006-0,49,54,0	warp	#006-0_49_54	0,0,005-1,66,63
