// This file is generated automatically. All manually added changes will be removed when running the Converter.
// Map 025-2-3: Pinkie Cave warps
025-2-3,21,46,0	warp	#025-2-3_21_46	0,1,025-2-2,67,61
