// This file is generated automatically. All manually added changes will be removed when running the Converter.
// Map 017-2-1: Jack's Basement warps
017-2-1,121,115,0	warp	#017-2-1_121_115	0,0,017-2,31,29
017-2-1,27,127,0	warp	#017-2-1_27_127	0,0,018-3,114,24
017-2-1,39,23,0	warp	#017-2-1_39_23	0,0,017-2-2,71,77
