// This file is generated automatically. All manually added changes will be removed when running the Converter.
// Map 018-2-4: Heroes' Hold - Exchange Hall warps
018-2-4,24,55,0	warp	#018-2-4_24_55	2,0,018-2-1,26,25
018-2-4,24,34,0	warp	#018-2-4_24_34	2,0,018-2-1,26,25
