// TMW2 scripts.
// Authors:
//    Jesusalva
// Description:
//    Mouboo Renting (var MOUBOO_RENTTIME )

003-1,63,31,0	script	Taree	NPC_ELVEN_MAN_MOUBOO_SHOP,{
    MoubooRent();
    closeclientdialog;
    goodbye();
    close;

OnInit:
    .distance=4;
    end;
}

