2013-02-14--16-15.sql
2013-02-15--18-06.sql
2013-03-05--01-05.sql
2013-03-06--00-00.sql
2013-03-09--01-56.sql
2013-03-27--18-35.sql
2013-04-16--01-24.sql
2013-04-16--02-15.sql
2013-10-09--21-38.sql
2013-10-10--16-36.sql
2013-10-27--16-47.sql
2013-10-30--19-53.sql
2013-10-30--21-12.sql
2013-10-31--07-49.sql
2013-11-09--00-03.sql
2013-11-15--00-06.sql
2013-11-15--19-57.sql
2013-11-16--07-49.sql
2013-11-18--08-23.sql
2013-12-24--00-15.sql
2014-01-04--16-47.sql
2014-01-06--17-22.sql
2014-02-19--17-57.sql
2014-03-25--23-57.sql
2014-04-07--22-04.sql
2014-04-26--10-00.sql
2014-05-17--00-06.sql
2014-09-01--16-53.sql
2014-11-03--00-45.sql
2015-07-08--13-08.sql
2015-08-27--20-42.sql
2015-12-16--12-57.sql
2015-12-17--15-58.sql
2016-03-10--22-18.sql
2016-07-08--02-42.sql
2016-07-08--02-51.sql
2016-10-03--20-27.sql
2016-10-26--10-29.sql
2017-03-02--11-40.sql
2017-03-05--08-09.sql
2017-03-15--14-29.sql
2017-06-04--15-04.sql
2017-06-04--15-05.sql
2017-11-04--10-39.sql
2018-02-26--15-57.sql
2018-03-10--04-06.sql
2018-06-03--00-10.sql
2018-06-03--17-16.sql
2018-06-05--12-02.sql
2018-07-24--03-23.sql
2018-09-01--05-22.sql
2018-12-14--01-02.sql
2018-12-29--07-51.sql
2019-04-08--21-52.sql
2019-04-25--02-12.sql
2019-05-09--18-07.sql
2020-08-01--00-00.sql
