// This file is generated automatically. All manually added changes will be removed when running the Converter.
// Map 017-2-2: Skull Cave mobs
017-2-2,70,57,16,20	monster	Shadow Plant	1189,4,60000,10000
017-2-2,70,55,14,20	monster	Dark Lizard	1051,18,25000,25000
