// This file is generated automatically. All manually added changes will be removed when running the Converter.
// Map 006-4: Abandoned Island conf

006-4,71,82,0	script	#006-4_71_82	NPC_HIDDEN,1,0,{
	end;
OnTouch:
	doevent "#DungeonCore::OnCurse";
	end;
}

006-4,95,100,0	script	#006-4_95_100	NPC_HIDDEN,1,0,{
	end;
OnTouch:
	doevent "#DungeonCore::OnCurse";
	end;
}

006-4,32,258,0	script	#006-4_32_258	NPC_HIDDEN,0,0,{
	end;
OnTouch:
	doevent "#DungeonCore::OnCurse";
	end;
}
