// This file is generated automatically. All manually added changes will be removed when running the Converter.
// Map 001-7: Frostia Cliffs mobs
001-7,48,95,24,11	monster	Ice Fluffy	1041,8,30000,30000
001-7,103,96,14,14	monster	Wolvern	1037,8,30000,30000
001-7,30,23,6,2	monster	White Slime	1094,5,30000,30000
001-7,49,46,8,2	monster	White Slime	1094,2,30000,30000
001-7,41,49,16,2	monster	Wolvern	1037,2,30000,30000
001-7,28,53,8,2	monster	Wolvern	1037,1,30000,30000
001-7,41,56,2,1	monster	Wolvern	1037,1,30000,30000
001-7,93,37,8,7	monster	White Slime	1094,5,30000,30000
001-7,109,53,8,8	monster	Moggun	1070,6,30000,30000
001-7,67,138,25,7	monster	Ice Fluffy	1041,8,30000,30000
001-7,70,119,1,0	monster	Blue Slime	1087,2,30000,30000
001-7,103,87,1,4	monster	Blue Slime	1087,2,30000,30000
001-7,100,108,1,4	monster	Blue Slime	1087,2,30000,30000
001-7,74,41,9,5	monster	Moggun	1070,5,30000,30000
001-7,38,78,1,1	monster	Wolvern	1037,2,30000,30000
001-7,64,70,1,1	monster	Wolvern	1037,2,30000,30000
001-7,53,73,1,1	monster	Wolvern	1037,2,30000,30000
001-7,25,76,1,1	monster	Wolvern	1037,2,30000,30000
001-7,81,72,1,1	monster	Wolvern	1037,2,30000,30000
001-7,92,69,1,1	monster	Wolvern	1037,2,30000,30000
001-7,78,78,1,1	monster	Wolvern	1037,2,30000,30000
001-7,33,137,10,7	monster	Ice Fluffy	1041,3,30000,30000
001-7,31,64,1,1	monster	Wolvern	1037,2,30000,30000
001-7,52,59,1,1	monster	Wolvern	1037,2,30000,30000
001-7,47,66,1,1	monster	Wolvern	1037,2,30000,30000
001-7,38,67,1,1	monster	Wolvern	1037,2,30000,30000
001-7,24,115,1,1	monster	Wolvern	1037,1,30000,100000
001-7,84,95,2,1	monster	Ice Fluffy	1041,2,30000,30000
001-7,89,90,2,1	monster	Ice Fluffy	1041,2,30000,30000
001-7,77,97,2,1	monster	Ice Fluffy	1041,2,30000,30000
001-7,77,140,10,3	monster	Yeti	1064,4,30000,30000
001-7,94,135,3,3	monster	White Slime	1094,2,30000,30000
001-7,35,25,5,2	monster	Alpha Mouboo	1056,1,30000,30000
001-7,106,56,1,1	monster	Wolvern	1037,2,30000,30000
001-7,90,37,1,1	monster	Wolvern	1037,2,30000,30000
