// This file is generated automatically. All manually added changes will be removed when running the Converter.
// Map 001-7: Frostia Cliffs warps
001-7,36,38,0	warp	#001-7_36_38	0,0,001-7,26,23
001-7,26,22,0	warp	#001-7_26_22	0,0,001-7,36,39
001-7,95,131,0	warp	#001-7_95_131	0,0,001-7,77,113
001-7,77,112,0	warp	#001-7_77_112	0,0,001-7,95,132
001-7,103,79,0	warp	#001-7_103_79	0,0,001-7,36,23
001-7,36,22,0	warp	#001-7_36_22	0,0,001-7,103,80
001-7,94,34,0	warp	#001-7_94_34	0,0,001-7,114,84
001-7,114,83,0	warp	#001-7_114_83	0,0,001-7,94,35
001-7,43,68,0	warp	#001-7_43_68	0,0,001-7,67,45
001-7,67,44,0	warp	#001-7_67_44	0,0,001-7,43,69
001-7,58,81,0	warp	#001-7_58_81	0,0,001-7,31,52
001-7,31,51,0	warp	#001-7_31_51	0,0,001-7,58,82
001-7,39,75,0	warp	#001-7_39_75	0,0,001-7,61,123
001-7,61,122,0	warp	#001-7_61_122	0,0,001-7,39,76
001-7,90,67,0	warp	#001-7_90_67	0,0,001-7,104,51
001-7,104,50,0	warp	#001-7_104_50	0,0,001-7,90,68
001-7,61,135,0	warp	#001-7_61_135	0,0,001-7,98,65
001-7,98,64,0	warp	#001-7_98_64	0,0,001-7,61,136
